<svg width="80" height="80" viewBox="0 0 80 80" fill="none" xmlns="http://www.w3.org/2000/svg">
<g clip-path="url(#clip0)">
<path fill-rule="evenodd" clip-rule="evenodd" d="M10.5777 52.4697L0.0471848 23.1883C-0.104065 22.7619 0.120466 22.2896 0.546872 22.1338C14.3919 17.1543 29.9928 12.523 43.3289 6.8327C43.9248 6.45676 44.3925 6.82817 44.6492 7.53879L61.1945 50.1863L65.6873 62.6811C65.8386 63.1075 65.6186 63.5844 65.1922 63.7358L33.532 75.121L21.1906 79.5596C20.7642 79.7155 20.292 79.4908 20.1362 79.0644L10.5777 52.4697Z" fill="white"/>
<path fill-rule="evenodd" clip-rule="evenodd" d="M19.3565 42.7545L14.0982 12.0882C14.0202 11.6388 14.3229 11.2124 14.7676 11.1345L50.9801 4.92603L59.2733 3.55963C59.7272 3.36244 60.4654 3.59166 60.6394 4.60509L69.5974 49.339L71.8393 62.4254C71.9173 62.8702 71.6146 63.3012 71.1699 63.3791L38.0105 69.0649L25.0824 71.2841C24.6377 71.3576 24.2068 71.0549 24.1288 70.6101L19.3565 42.7545Z" fill="white"/>
<path fill-rule="evenodd" clip-rule="evenodd" d="M29.5021 33.7127V63.196C29.5021 63.6683 29.8873 64.058 30.3595 64.058H44.044H64.3027H67.2138H79.1426C79.6147 64.058 79.9999 63.6683 79.9999 63.196V49.3439V11.0799V10.681H71.2894C70.4505 10.681 68.7083 10.8002 68.7083 8.89738L68.6899 0.391602H30.3593C29.8871 0.391602 29.502 0.776758 29.502 1.2491V8.60848V11.7219V33.7127H29.5021Z" fill="white"/>
<path fill-rule="evenodd" clip-rule="evenodd" d="M14.9695 17.1729C10.0642 18.8236 5.20468 20.4605 0.546872 22.1341C0.120466 22.29 -0.104065 22.7622 0.0471848 23.1886L10.5777 52.4702L20.1362 79.0647C20.2922 79.4911 20.7644 79.7158 21.1906 79.5599L33.532 75.1213L61.6531 65.0108L14.9695 17.1729Z" fill="#B5C4CF"/>
<path fill-rule="evenodd" clip-rule="evenodd" d="M29.5019 8.60742L14.7676 11.1338C14.3229 11.2118 14.0202 11.6382 14.0982 12.0876L14.9693 17.1726L19.3566 42.7538L24.129 70.6093C24.2069 71.0541 24.6379 71.3566 25.0826 71.2833L38.0107 69.0641L61.6527 65.0107L67.2137 64.0569H64.3026L29.5019 8.60742Z" fill="#D7E7EC"/>
<path fill-rule="evenodd" clip-rule="evenodd" d="M79.9998 49.3439V11.0799V10.681V10.548C79.9998 10.3004 79.8943 10.2591 79.5138 9.8877L70.1112 0.918945C69.6665 0.49707 69.5932 0.391602 69.3318 0.391602H68.6899H30.3593C29.8871 0.391602 29.502 0.776758 29.502 1.2491V63.196C29.502 63.6683 29.8871 64.058 30.3593 64.058H79.1424C79.6146 64.058 79.9998 63.6683 79.9998 63.196V49.3439Z" fill="#EDF3F4"/>
<path fill-rule="evenodd" clip-rule="evenodd" d="M29.5028 8.60742L26.0508 9.19898V66.3635C26.0508 66.8404 26.4359 67.2255 26.9081 67.2255H40.5927H48.7347L61.6536 65.0108L67.2145 64.0571H64.3035H60.723H44.0447H30.3602C29.888 64.0571 29.5028 63.6674 29.5028 63.1951C29.5028 45.0005 29.5028 26.8016 29.5028 8.60742Z" fill="#B5C4CF"/>
<path fill-rule="evenodd" clip-rule="evenodd" d="M19.3567 42.7541L14.9693 17.1729C13.782 17.5718 12.5992 17.9707 11.4209 18.3696L11.9665 21.5472L16.3539 47.1285L21.1309 74.9839C21.2042 75.4286 21.6351 75.7313 22.0798 75.658L35.0079 73.4388L41.142 72.3888L59.6173 65.7402L59.3973 65.3963L48.7339 67.2258L38.0109 69.0646L25.0828 71.2838C24.6381 71.3572 24.2071 71.0546 24.1292 70.6097L19.3567 42.7541Z" fill="#9AAFB7"/>
<path fill-rule="evenodd" clip-rule="evenodd" d="M80.0005 49.3439V11.0799V10.681C80.0005 10.2179 79.8493 10.2133 79.5146 9.8877L70.112 0.918945C69.6673 0.49707 69.594 0.391602 69.3326 0.391602H68.6907H59.1504C70.8087 15.9999 71.4734 44.135 62.8226 61.6966C62.4237 62.5129 62.0065 63.2969 61.571 64.058H64.3034H67.2145H79.1432C79.6154 64.058 80.0005 63.6683 80.0005 63.196V49.3439Z" fill="#D7E7EC"/>
<path fill-rule="evenodd" clip-rule="evenodd" d="M68.7087 8.89641C68.7087 10.7992 70.4507 10.68 71.2898 10.68H80.0003V10.547C80.0003 10.2994 79.8948 10.2581 79.5143 9.88672L70.1117 0.917969C69.667 0.496094 69.5937 0.390625 69.3323 0.390625H68.6904L68.7087 8.89641Z" fill="white"/>
<path fill-rule="evenodd" clip-rule="evenodd" d="M79.5143 9.88769L70.1117 0.918945C69.667 0.49707 69.5937 0.391602 69.3323 0.391602H68.6904L68.7087 8.89723C68.7087 10.8 70.4507 10.6808 71.2898 10.6808H80.0003V10.5479C80.0003 10.3004 79.8948 10.2591 79.5143 9.88769Z" fill="#B5C4CF"/>
<path d="M72.2518 19.1419H37.7355C37.0688 19.1419 36.5283 18.6013 36.5283 17.9342C36.5283 17.2672 37.0688 16.7266 37.7355 16.7266H72.2518C72.9185 16.7266 73.459 17.2672 73.459 17.9342C73.459 18.6013 72.9186 19.1419 72.2518 19.1419Z" fill="#9AAFB7"/>
<path d="M72.2518 27.721H37.7355C37.0688 27.721 36.5283 27.1804 36.5283 26.5133C36.5283 25.8463 37.0688 25.3057 37.7355 25.3057H72.2518C72.9185 25.3057 73.459 25.8463 73.459 26.5133C73.459 27.1804 72.9186 27.721 72.2518 27.721Z" fill="#9AAFB7"/>
<path d="M72.2518 36.2991H37.7355C37.0688 36.2991 36.5283 35.7585 36.5283 35.0914C36.5283 34.4244 37.0688 33.8838 37.7355 33.8838H72.2518C72.9185 33.8838 73.459 34.4244 73.459 35.0914C73.459 35.7585 72.9186 36.2991 72.2518 36.2991Z" fill="#9AAFB7"/>
<path d="M72.2518 44.8792H37.7355C37.0688 44.8792 36.5283 44.3386 36.5283 43.6715C36.5283 43.0045 37.0688 42.4639 37.7355 42.4639H72.2518C72.9185 42.4639 73.459 43.0045 73.459 43.6715C73.459 44.3386 72.9186 44.8792 72.2518 44.8792Z" fill="#9AAFB7"/>
<path d="M72.2518 53.4583H37.7355C37.0688 53.4583 36.5283 52.9177 36.5283 52.2506C36.5283 51.5836 37.0688 51.043 37.7355 51.043H72.2518C72.9185 51.043 73.459 51.5836 73.459 52.2506C73.459 52.9177 72.9186 53.4583 72.2518 53.4583Z" fill="#9AAFB7"/>
</g>
<defs>
<clipPath id="clip0">
<rect width="80" height="80" fill="white"/>
</clipPath>
</defs>
</svg>
