<svg width="44" height="44" viewBox="0 0 44 44" fill="none" xmlns="http://www.w3.org/2000/svg">
<circle cx="22" cy="22" r="22" fill="#329945"/>
<path d="M19.8125 27.2812C19.7188 27.0938 19.5625 27.0625 19.5 27.0625C19.4062 27.0625 19.25 27.0938 19.1562 27.25L18.9375 27.75C18.7188 28.125 18.1562 28.0938 18 27.6875L17.5 26.0938L17.1562 27.0938C16.9688 27.6562 16.4688 28 15.875 28H15.5C15.2188 28 15 27.7812 15 27.5C15 27.25 15.2188 27 15.5 27H15.875C16.0312 27 16.1562 26.9062 16.2188 26.7812L16.7812 25.0625C16.875 24.75 17.1562 24.5625 17.5 24.5625C17.8125 24.5625 18.0938 24.75 18.1875 25.0625L18.625 26.375C19.25 25.875 20.3125 26.0625 20.6875 26.8125C20.75 26.9375 20.875 27 21 27V24.4375L25 20.4688V19H20.75C20.3125 19 20 18.6875 20 18.25V14H13.75C13.3125 14 13 14.3438 13 14.75V29.25C13 29.6875 13.3125 30 13.75 30H24.25C24.6562 30 25 29.6875 25 29.25V28H21C20.4688 28 20.0312 27.7188 19.8125 27.2812ZM25 17.8125C25 17.625 24.9062 17.4375 24.7812 17.2812L21.7188 14.2188C21.5625 14.0938 21.375 14 21.1875 14H21V18H25V17.8125ZM22 24.8438V27H24.125L29.1875 21.9375L27.0625 19.8125L22 24.8438ZM30.75 19.25L29.75 18.25C29.4375 17.9375 28.9375 17.9375 28.625 18.25L27.7812 19.0938L29.9062 21.2188L30.75 20.375C31.0625 20.0625 31.0625 19.5625 30.75 19.25Z" fill="white"/>
</svg>
