<svg width="80" height="80" viewBox="0 0 80 80" fill="none" xmlns="http://www.w3.org/2000/svg">
<g clip-path="url(#clip0)">
<path d="M17.0997 57.7725L1.76172 78.2327C4.11904 80.59 7.94139 80.59 10.2987 78.2327L23.9293 64.6021L17.0997 57.7725Z" fill="#A03B01"/>
<path d="M20.5208 61.1886L6.89021 74.8192C4.53289 77.1765 2.23932 78.7053 1.76799 78.234C-0.589329 75.8767 -0.589329 72.0543 1.76799 69.697L15.3985 56.0664L20.5208 61.1886Z" fill="#D04B00"/>
<path d="M17.1016 57.7666L25.6373 49.2309L30.7587 54.3523L22.223 62.888L17.1016 57.7666Z" fill="#8F99A6"/>
<path d="M23.0804 44.9785L20.8493 50.1946C20.6553 50.6482 20.7567 51.1743 21.1055 51.5231L28.4875 58.905C28.8364 59.2538 29.3624 59.3554 29.816 59.1612L35.0321 56.9301L23.0804 44.9785Z" fill="#6BDD80"/>
<path d="M25.644 62.8943L22.2292 59.4795L18.8145 62.8943L22.2292 66.309C23.1722 67.252 24.701 67.252 25.644 66.309C26.587 65.366 26.587 63.8373 25.644 62.8943Z" fill="#329945"/>
<path d="M22.2325 62.8917C23.1755 61.9487 23.1755 60.4199 22.2325 59.4769L17.1103 54.3547C16.1673 53.4117 14.6385 53.4117 13.6955 54.3547C12.7525 55.2977 12.7525 56.8265 13.6955 57.7695L18.8178 62.8917C19.7607 63.8347 21.2895 63.8347 22.2325 62.8917Z" fill="#6BDD80"/>
<path d="M49.6573 60.6886C66.4157 60.6886 80.001 47.1032 80.001 30.3448C80.001 13.5864 66.4157 0.000976562 49.6573 0.000976562C32.8989 0.000976562 19.3135 13.5864 19.3135 30.3448C19.3135 47.1032 32.8989 60.6886 49.6573 60.6886Z" fill="#329945"/>
<path d="M49.666 4.82617V55.8553C63.7573 55.8553 75.1805 44.432 75.1805 30.3407C75.1805 16.2494 63.7573 4.82617 49.666 4.82617Z" fill="#C7FDD1"/>
<path d="M70.3502 30.3407C70.3502 16.2494 61.0891 4.82617 49.6649 4.82617C35.5737 4.82617 24.1504 16.2494 24.1504 30.3407C24.1504 44.432 35.5737 55.8553 49.6649 55.8553C61.0891 55.8553 70.3502 44.432 70.3502 30.3407Z" fill="white"/>
</g>
<defs>
<clipPath id="clip0">
<rect width="80" height="80" fill="white"/>
</clipPath>
</defs>
</svg>
