<svg width="32" height="32" viewBox="0 0 32 32" fill="none" xmlns="http://www.w3.org/2000/svg">
<path d="M16 0.5C11.8575 0.5 7.97144 2.11271 5.04208 5.04208C2.11271 7.97144 0.5 11.8575 0.5 16C0.5 20.1425 2.11271 24.0286 5.04208 26.9579C7.97144 29.8873 11.8575 31.5 16 31.5C20.1425 31.5 24.0286 29.8873 26.9579 26.9579C29.8873 24.0286 31.5 20.1425 31.5 16C31.5 11.8575 29.8873 7.97144 26.9579 5.04208C24.0286 2.11271 20.1425 0.5 16 0.5Z" stroke="#CA3732"/>
<path d="M12.1191 15.7364L17.2973 11.1061C17.4555 10.9646 17.7168 10.9646 17.8819 11.1061C18.04 11.2475 18.04 11.4812 17.8819 11.6287L12.9925 16.0008L17.8819 20.3728C18.0332 20.5081 18.0332 20.7417 17.875 20.8893C17.7925 20.9631 17.6893 21 17.5862 21C17.483 21 17.373 20.9631 17.2973 20.8893L12.1191 16.259C11.9609 16.1176 11.9609 15.8839 12.1191 15.7364Z" stroke="#CA3732"/>
</svg>
