<svg width="32" height="32" viewBox="0 0 32 32" fill="none" xmlns="http://www.w3.org/2000/svg">
<path d="M16 31.5C20.1425 31.5 24.0286 29.8873 26.9579 26.9579C29.8873 24.0286 31.5 20.1425 31.5 16C31.5 11.8575 29.8873 7.97145 26.9579 5.04208C24.0286 2.11271 20.1425 0.500002 16 0.500001C11.8575 0.500001 7.97145 2.11271 5.04208 5.04208C2.11271 7.97144 0.500002 11.8575 0.500001 16C0.500001 20.1425 2.11271 24.0286 5.04208 26.9579C7.97144 29.8873 11.8575 31.5 16 31.5Z" stroke="#CA3732"/>
<path d="M19.8809 16.2636L14.7027 20.8939C14.5445 21.0354 14.2832 21.0354 14.1181 20.8939C13.96 20.7525 13.96 20.5188 14.1181 20.3713L19.0075 15.9992L14.1181 11.6272C13.9668 11.4919 13.9668 11.2583 14.125 11.1107C14.2075 11.0369 14.3107 11 14.4138 11C14.517 11 14.627 11.0369 14.7027 11.1107L19.8809 15.741C20.0391 15.8824 20.0391 16.1161 19.8809 16.2636Z" stroke="#CA3732"/>
</svg>
