<svg width="1440" height="273" viewBox="0 0 1440 273" fill="none" xmlns="http://www.w3.org/2000/svg">
<mask id="mask0" mask-type="alpha" maskUnits="userSpaceOnUse" x="0" y="0" width="1440" height="273">
<rect width="1440" height="273" fill="#C4C4C4"/>
</mask>
<g mask="url(#mask0)">
<g opacity="0.2">
<g opacity="0.3">
<path d="M1022.43 189.923C1022.43 186.249 1019.43 183.243 1015.77 183.243C1014.99 183.243 1014.32 183.354 1013.66 183.577L977.107 102.309C978.996 101.084 980.218 99.0803 980.218 96.6311C980.218 92.9574 977.218 89.9516 973.552 89.9516C970.775 89.9516 968.442 91.6215 967.331 94.0707L817.131 55.1065C817.131 54.8838 817.131 54.6612 817.131 54.4385C817.131 50.7647 814.131 47.7589 810.465 47.7589C806.799 47.7589 803.799 50.7647 803.799 54.4385C803.799 54.8838 803.799 55.3291 803.911 55.7744L722.923 85.4985C721.812 83.3833 719.59 82.0474 717.034 82.0474C713.368 82.0474 710.369 85.0532 710.369 88.727C710.369 90.2856 710.924 91.6215 711.702 92.7347L644.934 160.087C643.823 159.308 642.49 158.751 640.935 158.751C639.268 158.751 637.824 159.308 636.713 160.31L470.404 10.3533C471.071 9.24006 471.515 8.01549 471.515 6.67957C471.515 3.00581 468.516 0 464.849 0C461.183 0 458.184 3.00581 458.184 6.67957C458.184 7.68151 458.406 8.57211 458.739 9.3514L229.217 152.294C228.662 149.066 225.885 146.728 222.663 146.728C218.997 146.728 215.997 149.734 215.997 153.408C215.997 153.63 215.997 153.853 215.997 154.076L119.345 177.899C118.345 175.45 115.901 173.78 113.123 173.78C109.791 173.78 107.013 176.229 106.458 179.458H-19.4127C-19.8571 176.229 -22.6345 173.78 -26.0784 173.78C-28.0781 173.78 -29.8556 174.671 -31.0777 176.007L-114.51 121.457C-114.177 120.678 -113.954 119.676 -113.954 118.674C-113.954 115 -116.954 111.994 -120.62 111.994C-124.286 111.994 -127.286 115 -127.286 118.674C-127.286 122.014 -124.731 124.908 -121.509 125.353L-123.953 336.762C-127.175 337.207 -129.73 339.99 -129.73 343.441C-129.73 347.115 -126.73 350.121 -123.064 350.121C-121.731 350.121 -120.509 349.676 -119.509 349.008L-52.9633 425.711C-53.9631 426.936 -54.6297 428.383 -54.6297 430.053C-54.6297 433.727 -51.6301 436.733 -47.964 436.733C-44.2979 436.733 -41.2983 433.727 -41.2983 430.053C-41.2983 428.94 -41.5205 427.938 -41.9649 427.047L26.6916 378.732C27.9137 380.068 29.5801 380.847 31.5798 380.847C33.5795 380.847 35.357 379.956 36.5791 378.509L97.7923 415.469C97.5701 416.137 97.3478 416.917 97.3478 417.807C97.3478 421.481 100.347 424.487 104.014 424.487C107.68 424.487 110.679 421.481 110.679 417.807L110.79 418.809L329.536 402.89C330.202 405.895 332.869 408.122 336.091 408.122C337.646 408.122 339.09 407.565 340.312 406.675L407.413 469.351C406.636 470.465 406.191 471.689 406.191 473.136C406.191 476.81 409.191 479.816 412.857 479.816C416.523 479.816 419.523 476.81 419.523 473.136C419.523 471.801 419.189 470.576 418.523 469.574L523.73 379.177C524.952 380.179 526.396 380.847 528.062 380.847C531.728 380.847 534.728 377.841 534.728 374.167C534.728 372.72 534.284 371.496 533.506 370.382L595.608 312.493C596.719 313.383 598.163 313.94 599.83 313.94C603.496 313.94 606.495 310.934 606.495 307.26C606.495 307.038 606.495 306.704 606.495 306.481L755.807 262.953C756.918 265.179 759.139 266.738 761.806 266.738C763.805 266.738 765.583 265.847 766.805 264.511L856.569 322.512C856.125 323.403 855.903 324.405 855.903 325.407C855.903 329.08 858.902 332.086 862.569 332.086C866.124 332.086 869.123 329.192 869.234 325.629L992.327 300.581C993.438 302.807 995.66 304.477 998.438 304.477C1002.1 304.477 1005.1 301.471 1005.1 297.798C1005.1 295.014 1003.44 292.677 1001.1 291.675L1015.66 196.936C1019.55 196.602 1022.43 193.596 1022.43 189.923ZM336.091 394.54C335.202 394.54 334.313 394.763 333.646 394.985L285.209 312.047L340.534 382.517L336.979 394.651C336.757 394.54 336.424 394.54 336.091 394.54ZM100.57 411.907L63.1307 360.92L107.458 340.102C108.346 341.438 109.679 342.439 111.346 342.885L103.458 410.905C102.347 411.128 101.458 411.462 100.57 411.907ZM-47.964 423.151C-49.2972 423.151 -50.5193 423.596 -51.5191 424.264L-118.065 347.56C-117.509 346.893 -117.176 346.225 -116.843 345.445L-25.0785 363.703L-46.6309 423.262C-47.0753 423.151 -47.5196 423.151 -47.964 423.151ZM805.799 59.2256C807.021 60.3388 808.577 61.0068 810.354 61.0068C811.909 61.0068 813.242 60.4501 814.465 59.6709L906.896 149.288C906.673 149.622 906.562 149.845 906.34 150.179L755.029 100.194L805.799 59.2256ZM866.457 319.506L911.561 159.864C911.895 159.864 912.117 159.976 912.45 159.976C913.339 159.976 914.228 159.753 915.005 159.419L961.776 237.348L867.79 320.62C867.346 320.286 866.901 319.84 866.457 319.506ZM917.894 149.4L932.003 136.263L1008.32 186.917L918.894 154.409C919.005 153.964 919.005 153.519 919.005 153.074C919.005 151.738 918.672 150.513 917.894 149.4ZM916.561 147.953C915.45 147.062 914.005 146.505 912.339 146.505C910.784 146.505 909.451 147.062 908.229 147.841L818.686 61.0068L930.225 135.15L916.561 147.953ZM897.675 149.4L737.476 118.785C737.476 118.674 737.476 118.562 737.476 118.562C737.476 117.338 737.143 116.225 736.587 115.223L753.251 101.752L897.675 149.4ZM735.254 113.553C734.032 112.439 732.477 111.772 730.699 111.772C730.033 111.772 729.366 111.883 728.81 111.994L720.589 94.182C721.589 93.514 722.367 92.6234 722.923 91.6215L751.029 100.862L735.254 113.553ZM716.923 95.2952C717.59 95.2952 718.256 95.1839 718.812 95.0726L727.033 112.885C725.255 114.109 724.034 116.113 724.034 118.451C724.034 119.23 724.145 120.01 724.367 120.678L646.267 161.534C646.267 161.534 646.267 161.534 646.267 161.423L713.035 94.0707C714.146 94.8499 715.479 95.2952 716.923 95.2952ZM522.619 370.271L465.627 343.441L498.622 260.503C499.067 260.615 499.622 260.726 500.178 260.726C500.4 260.726 500.511 260.726 500.733 260.726L525.729 367.822C524.396 368.267 523.396 369.158 522.619 370.271ZM-118.954 337.986L-46.9641 216.975L0.139923 278.872C-1.08211 280.097 -1.74863 281.767 -1.74863 283.548C-1.74863 284.216 -1.63759 284.884 -1.52649 285.44L-117.621 339.434C-117.954 338.877 -118.398 338.432 -118.954 337.986ZM-115.621 122.793L-32.1886 177.343C-32.633 178.233 -32.8552 179.124 -32.8552 180.126C-32.8552 182.241 -31.8554 184.134 -30.4111 185.358L-47.1864 213.412L-115.843 123.015C-115.732 123.015 -115.732 122.904 -115.621 122.793ZM36.6901 252.265L9.36086 278.538C8.13881 277.536 6.69458 276.868 4.91705 276.868C4.58377 276.868 4.25046 276.868 3.91718 276.98L-23.301 186.249C-22.9678 186.137 -22.7455 185.915 -22.5233 185.803L36.6901 252.265ZM108.902 185.469C109.79 186.137 110.901 186.583 112.012 186.805V329.86C111.013 329.971 110.124 330.305 109.346 330.862L39.4675 252.377L108.902 185.469ZM634.713 168.103L542.505 226.104L476.181 135.373C476.848 134.705 477.403 133.814 477.736 132.924L634.158 165.097C634.158 165.208 634.158 165.319 634.158 165.431C634.158 166.321 634.38 167.212 634.713 168.103ZM283.654 298.577C283.432 297.464 282.876 296.573 282.098 295.682L321.537 252.377L362.309 292.565C360.865 293.679 359.865 295.348 359.643 297.241L283.654 298.577ZM471.515 137.265C471.737 137.265 471.848 137.265 472.071 137.265L497.289 245.697L497.733 247.701C496.178 248.257 494.956 249.482 494.178 250.929L415.079 224.879L468.849 136.709C469.626 137.043 470.515 137.265 471.515 137.265ZM493.512 252.822C493.401 253.156 493.401 253.601 493.401 253.935C493.401 254.38 493.401 254.714 493.512 255.16L372.752 295.794C372.641 295.46 372.53 295.126 372.307 294.903L413.968 226.66L493.512 252.822ZM371.085 293.122C370.641 292.677 370.197 292.343 369.641 292.009L365.086 245.029L362.087 214.414C363.975 213.969 365.531 212.744 366.419 211.074L411.968 226.104L371.085 293.122ZM356.976 213.524C357.976 214.192 359.087 214.526 360.309 214.637L363.309 245.697L367.753 291.341C367.308 291.229 366.975 291.229 366.531 291.229C365.753 291.229 364.975 291.341 364.309 291.675L323.092 251.041L356.976 213.524ZM500.178 247.256C499.955 247.256 499.844 247.256 499.622 247.256L473.959 136.82C474.181 136.709 474.404 136.597 474.626 136.486L540.949 227.105L505.288 249.482C503.955 248.146 502.177 247.256 500.178 247.256ZM467.182 135.707L413.19 224.322L367.197 209.182C367.308 208.737 367.308 208.403 367.308 207.957C367.308 206.955 367.086 205.954 366.642 205.063L466.627 135.15C466.738 135.373 466.96 135.484 467.182 135.707ZM355.532 212.188L321.537 249.482L227.884 157.081C227.995 156.859 228.106 156.747 228.218 156.525L353.977 206.51C353.866 206.955 353.866 207.401 353.866 207.957C353.866 209.516 354.532 211.074 355.532 212.188ZM320.204 250.929L280.654 294.458C279.654 293.901 278.543 293.567 277.21 293.567C276.766 293.567 276.433 293.567 275.988 293.679L225.662 159.085C225.884 158.974 226.218 158.751 226.44 158.529L320.204 250.929ZM-26.1895 186.917C-25.8562 186.917 -25.5229 186.917 -25.1896 186.805L-4.52599 255.494L2.02863 277.536C1.91753 277.536 1.80638 277.648 1.69528 277.759L-45.8532 215.194L-28.7447 186.36C-27.8559 186.694 -27.0782 186.917 -26.1895 186.917ZM107.791 332.197C107.68 332.309 107.569 332.531 107.458 332.643L11.3606 285.663C11.5828 284.995 11.6938 284.327 11.6938 283.659C11.6938 282.323 11.3605 281.099 10.6939 280.097L38.0233 253.712L107.791 332.197ZM283.876 300.581L359.865 299.245C360.309 301.36 361.753 303.141 363.642 304.032L341.312 380.179L282.098 304.811C283.098 303.698 283.765 302.139 283.876 300.581ZM365.531 304.589C365.864 304.589 366.086 304.7 366.419 304.7C366.642 304.7 366.975 304.7 367.197 304.7L410.302 466.902C410.08 467.014 409.858 467.125 409.635 467.236L342.756 382.183L365.531 304.589ZM373.085 297.798L494.178 257.052C494.734 258.166 495.623 259.167 496.734 259.835L463.738 342.662L372.752 299.913C372.974 299.356 373.085 298.688 373.085 298.02C373.085 297.909 373.085 297.798 373.085 297.798ZM506.288 251.263L542.06 228.775L595.608 302.028C595.275 302.251 595.052 302.585 594.83 302.919L506.51 256.162C506.732 255.494 506.843 254.714 506.843 253.935C506.843 252.933 506.621 252.043 506.288 251.263ZM600.052 300.358C599.052 300.358 598.163 300.581 597.274 300.915L543.727 227.662L635.824 169.772C636.491 170.552 637.268 171.108 638.157 171.554L601.385 300.469C600.94 300.358 600.496 300.358 600.052 300.358ZM634.602 163.093L478.181 130.92C478.181 130.808 478.181 130.697 478.181 130.586C478.181 127.135 475.514 124.24 472.071 123.906L466.071 13.1365C467.182 12.9138 468.182 12.4685 468.96 11.6893L635.269 161.646C635.047 162.091 634.824 162.536 634.602 163.093ZM464.183 13.1365L470.182 123.906C467.294 124.463 464.96 127.023 464.849 130.14L398.748 136.263L462.628 12.8025C463.072 13.0252 463.627 13.1365 464.183 13.1365ZM464.96 132.144C465.072 132.59 465.294 133.146 465.516 133.48L365.642 203.393C365.308 203.059 364.975 202.725 364.642 202.502L397.748 138.49L464.96 132.144ZM362.753 201.612C362.087 201.389 361.309 201.278 360.531 201.278C357.976 201.278 355.865 202.725 354.643 204.729L228.884 154.743C228.884 154.521 228.995 154.409 228.995 154.187L395.193 138.601L362.753 201.612ZM222.441 159.864C222.885 159.864 223.44 159.864 223.885 159.753L274.1 294.235C273.655 294.458 273.1 294.792 272.767 295.237L179.336 227.328L219.885 159.419C220.663 159.753 221.552 159.864 222.441 159.864ZM271.544 296.684C270.878 297.686 270.545 298.8 270.545 300.135L122.678 333.311L119.234 334.09C118.789 332.977 118.123 332.086 117.234 331.307L178.336 228.998L271.544 296.684ZM115.567 330.305C115.123 330.082 114.568 329.971 114.012 329.86V186.805C115.456 186.583 116.789 185.915 117.789 184.913L176.781 227.773L115.567 330.305ZM107.569 184.022L38.1344 250.818L-20.9681 184.468C-20.1904 183.577 -19.6349 182.352 -19.5238 181.128H106.347C106.569 182.241 106.902 183.243 107.569 184.022ZM-117.398 124.24L-48.1863 215.305L-120.62 336.984C-121.064 336.762 -121.62 336.65 -122.064 336.539L-119.62 125.019C-118.842 124.908 -118.065 124.685 -117.398 124.24ZM-116.51 343.553C-116.51 343.441 -116.51 343.33 -116.51 343.219C-116.51 342.551 -116.621 341.883 -116.732 341.326L-0.63768 287.333C-0.0821991 288.224 0.806503 289.003 1.80635 289.559L-24.412 361.81L-116.51 343.553ZM3.58398 290.227C4.02835 290.339 4.47269 290.339 4.91705 290.339H5.02812L28.9135 367.71C27.136 368.378 25.8028 369.826 25.1362 371.607L-22.5233 362.144L3.58398 290.227ZM31.5798 367.265C31.3576 367.265 31.1355 367.265 30.9133 367.265L7.02789 290.005C7.36118 289.893 7.69449 289.782 8.02777 289.559L60.02 360.252L37.3567 370.939C36.3568 368.712 34.135 367.265 31.5798 367.265ZM9.69418 288.335C9.91638 288.112 10.1386 287.89 10.2497 287.667L106.569 334.424C106.347 335.092 106.235 335.76 106.235 336.428C106.235 337.096 106.347 337.764 106.569 338.32L61.9087 359.361L9.69418 288.335ZM108.791 412.909C107.902 412.018 106.68 411.35 105.236 411.128L113.123 343.219C116.678 343.107 119.567 340.102 119.567 336.539C119.567 336.428 119.567 336.205 119.567 336.094L156.45 327.856L270.656 302.251C270.767 302.473 270.767 302.696 270.878 302.807L108.791 412.909ZM338.979 395.097L342.09 384.298L404.303 463.451L341.645 405.005C342.423 403.892 342.867 402.667 342.867 401.22C342.867 398.548 341.201 396.21 338.979 395.097ZM412.968 466.234C412.746 466.234 412.413 466.234 412.19 466.234L369.086 304.032C370.308 303.475 371.308 302.696 371.974 301.583L463.072 344.443L414.523 466.457C413.968 466.346 413.524 466.234 412.968 466.234ZM416.301 467.125L464.849 345.223L521.73 371.941C521.508 372.497 521.397 373.165 521.397 373.833C521.397 375.169 521.73 376.394 522.396 377.396L417.19 467.793C417.079 467.57 416.634 467.347 416.301 467.125ZM528.173 367.265C527.951 367.265 527.84 367.265 527.618 367.265L502.622 260.169C503.844 259.724 504.843 258.945 505.51 257.943L593.719 304.589C593.386 305.368 593.275 306.147 593.275 307.038C593.275 308.485 593.719 309.71 594.497 310.823L532.395 368.712C531.173 367.822 529.729 367.265 528.173 367.265ZM603.384 301.137C603.384 301.137 603.273 301.137 603.273 301.026L640.046 171.999C640.379 171.999 640.601 172.11 640.935 172.11C642.712 172.11 644.378 171.442 645.6 170.218L676.929 194.71L603.384 301.137ZM646.711 168.659C647.267 167.657 647.6 166.544 647.6 165.319C647.6 164.54 647.489 163.761 647.267 163.093L725.367 122.236C725.589 122.57 725.922 122.904 726.255 123.238L678.04 192.928L646.711 168.659ZM727.811 124.463C728.699 124.908 729.699 125.131 730.81 125.131C730.921 125.131 731.144 125.131 731.255 125.131L758.028 246.254L759.584 253.49C758.695 253.824 757.917 254.38 757.251 254.937L679.484 194.264L727.811 124.463ZM762.028 253.044C761.806 253.044 761.695 253.044 761.472 253.044L759.917 246.254L733.143 124.685C733.254 124.685 733.365 124.574 733.477 124.574L801.578 230.668L766.916 255.271C765.694 253.824 764.028 253.044 762.028 253.044ZM735.143 123.461C736.032 122.682 736.698 121.68 737.032 120.678L905.673 152.962C905.673 153.074 905.673 153.185 905.673 153.185C905.673 154.298 905.896 155.3 906.451 156.191L803.244 229.443L735.143 123.461ZM907.562 157.861C908.117 158.529 908.895 158.974 909.673 159.308L864.679 318.727C864.124 318.504 863.457 318.504 862.791 318.504C862.013 318.504 861.235 318.616 860.569 318.95L804.355 231.225L907.562 157.861ZM991.883 297.575C991.883 297.909 991.883 298.243 991.994 298.577L869.234 323.514C869.123 323.18 869.012 322.735 868.79 322.401L962.665 239.129L994.549 292.231C992.883 293.345 991.883 295.348 991.883 297.575ZM916.561 158.417C917.227 157.861 917.783 157.193 918.227 156.413L1009.1 189.366C1009.1 189.589 1009.1 189.7 1009.1 189.923C1009.1 191.481 1009.66 192.928 1010.55 194.042L963.22 236.012L916.561 158.417ZM1011.88 184.468C1011.32 184.913 1010.77 185.358 1010.32 185.915L933.447 134.816L969.109 101.752C970.219 102.643 971.664 103.199 973.33 103.199C973.997 103.199 974.552 103.088 975.108 102.977L1011.88 184.468ZM966.776 95.9632C966.776 96.1859 966.776 96.4085 966.776 96.6311C966.776 98.0784 967.22 99.303 967.886 100.416L931.781 133.814L816.353 57.1103C816.353 56.999 816.464 56.999 816.464 56.8877L966.776 95.9632ZM804.466 57.5557C804.466 57.667 804.577 57.667 804.577 57.7783L752.807 99.5256L723.478 89.8403C723.589 89.5063 723.589 89.061 723.589 88.727C723.589 88.2817 723.589 87.8364 723.478 87.3911L804.466 57.5557ZM459.628 10.7987C459.961 11.244 460.406 11.5779 460.85 11.9119L396.415 136.597L233.217 151.849L459.628 10.7987ZM216.219 155.745C216.664 156.747 217.33 157.638 218.219 158.417L177.78 226.104L118.9 183.243C119.345 182.352 119.678 181.239 119.678 180.126C119.678 179.903 119.678 179.681 119.678 179.458L216.219 155.745ZM-43.187 425.266C-43.6314 424.71 -44.1869 424.264 -44.8534 423.93L-23.19 364.037L24.8031 373.611C24.8031 373.722 24.8031 373.833 24.8031 373.945C24.8031 375.058 25.0252 376.06 25.4696 376.951L-43.187 425.266ZM37.69 376.728C38.0233 375.837 38.2455 374.947 38.2455 373.945C38.2455 373.499 38.2455 373.165 38.1344 372.72L61.3533 361.81L99.1255 413.132C99.0144 413.243 98.9032 413.354 98.7921 413.466L37.69 376.728ZM110.79 416.694C110.679 416.026 110.457 415.135 110.013 414.467L271.989 304.477C273.211 306.036 275.099 307.038 277.21 307.038C278.099 307.038 278.988 306.815 279.654 306.592L331.869 396.099C330.425 397.212 329.536 398.882 329.425 400.774L110.79 416.694ZM606.162 304.366C605.829 303.698 605.384 303.03 604.829 302.473L678.373 196.045L756.029 256.607C755.473 257.609 755.251 258.611 755.251 259.835C755.251 260.169 755.251 260.503 755.362 260.837L606.162 304.366ZM768.138 262.619C768.582 261.728 768.805 260.726 768.805 259.724C768.805 258.722 768.582 257.72 768.138 256.83L802.689 232.338L858.791 319.84C858.458 320.063 858.125 320.397 857.792 320.731L768.138 262.619ZM998.549 290.784C997.771 290.784 996.993 290.895 996.327 291.229L964.22 237.793L1011.88 195.489C1012.44 195.934 1013.1 196.268 1013.88 196.379L999.326 290.895C999.104 290.895 998.882 290.784 998.549 290.784Z" fill="#71A853"/>
</g>
<path d="M1036.43 237.013C1039.87 230.668 1047.87 228.219 1054.21 231.67C1060.54 235.121 1062.98 243.136 1059.54 249.482C1056.09 255.828 1048.1 258.277 1041.76 254.826C1035.32 251.486 1032.99 243.47 1036.43 237.013Z" fill="url(#paint0_radial)"/>
<path d="M602.828 85.7244C606.272 79.3788 614.271 76.9296 620.604 80.3807C626.936 83.8318 629.38 91.8473 625.936 98.1929C622.492 104.538 614.493 106.988 608.161 103.537C601.718 100.197 599.384 92.1813 602.828 85.7244Z" fill="url(#paint1_radial)"/>
<path d="M87.5698 98.1892C91.0137 91.8436 99.0125 89.3944 105.345 92.8455C111.677 96.2967 114.121 104.312 110.677 110.658C107.233 117.003 99.2346 119.453 92.9022 116.001C86.4587 112.662 84.1258 104.646 87.5698 98.1892Z" fill="url(#paint2_radial)"/>
</g>
</g>
<defs>
<radialGradient id="paint0_radial" cx="0" cy="0" r="1" gradientUnits="userSpaceOnUse" gradientTransform="translate(1047.96 243.34) rotate(-151.487) scale(13.1453 13.1602)">
<stop stop-color="#71A853"/>
<stop offset="1" stop-color="#71A853" stop-opacity="0"/>
</radialGradient>
<radialGradient id="paint1_radial" cx="0" cy="0" r="1" gradientUnits="userSpaceOnUse" gradientTransform="translate(614.377 92.0445) rotate(-151.487) scale(13.1455 13.1604)">
<stop stop-color="#71A853"/>
<stop offset="1" stop-color="#71A853" stop-opacity="0"/>
</radialGradient>
<radialGradient id="paint2_radial" cx="0" cy="0" r="1" gradientUnits="userSpaceOnUse" gradientTransform="translate(99.0798 104.511) rotate(-151.487) scale(13.1454 13.1604)">
<stop stop-color="#71A853"/>
<stop offset="1" stop-color="#71A853" stop-opacity="0"/>
</radialGradient>
</defs>
</svg>
