<svg width="19" height="19" viewBox="0 0 19 19" fill="none" xmlns="http://www.w3.org/2000/svg">
<path fill-rule="evenodd" clip-rule="evenodd" d="M3.16659 6.36962V7.91667H1.58325V6.29947L1.58614 6.26572C1.77364 4.07829 4.08284 0 9.49992 0C12.1935 0 14.0604 1.01741 15.3089 2.32256C16.5363 3.60571 17.1327 5.12925 17.3916 6.13618L17.4166 6.23318V7.91667H15.8333V6.43632C15.605 5.5989 15.11 4.40524 14.1647 3.41702C13.2044 2.41314 11.7464 1.58333 9.49992 1.58333C5.06767 1.58333 3.31697 4.84858 3.16659 6.36962Z" fill="#329945"/>
<path fill-rule="evenodd" clip-rule="evenodd" d="M17.4166 12.663V11.875H15.8333V12.6667L15.8333 12.6743C15.8402 13.3816 15.7031 14.1533 15.2253 14.7393C14.7719 15.2955 13.888 15.8333 12.0701 15.8333H10.2922L10.292 17.4167H12.0701C14.2139 17.4167 15.615 16.767 16.4525 15.7398C17.2643 14.7441 17.4246 13.5387 17.4166 12.663Z" fill="#329945"/>
<path fill-rule="evenodd" clip-rule="evenodd" d="M1.58325 7.91675C1.58325 6.60507 2.64658 5.54175 3.95825 5.54175H5.54158C6.85326 5.54175 7.91658 6.60507 7.91658 7.91675V11.8751C7.91658 13.1868 6.85326 14.2501 5.54158 14.2501H3.95825C2.64658 14.2501 1.58325 13.1868 1.58325 11.8751V7.91675ZM3.95825 7.12508C3.52103 7.12508 3.16659 7.47952 3.16659 7.91675V11.8751C3.16659 12.3123 3.52103 12.6667 3.95825 12.6667H5.54158C5.97881 12.6667 6.33325 12.3123 6.33325 11.8751V7.91675C6.33325 7.47952 5.97881 7.12508 5.54158 7.12508H3.95825Z" fill="#329945"/>
<path fill-rule="evenodd" clip-rule="evenodd" d="M11.0833 7.91675C11.0833 6.60507 12.1466 5.54175 13.4583 5.54175H15.0416C16.3533 5.54175 17.4166 6.60507 17.4166 7.91675V11.8751C17.4166 13.1868 16.3533 14.2501 15.0416 14.2501H13.4583C12.1466 14.2501 11.0833 13.1868 11.0833 11.8751V7.91675ZM13.4583 7.12508C13.021 7.12508 12.6666 7.47952 12.6666 7.91675V11.8751C12.6666 12.3123 13.021 12.6667 13.4583 12.6667H15.0416C15.4788 12.6667 15.8333 12.3123 15.8333 11.8751V7.91675C15.8333 7.47952 15.4788 7.12508 15.0416 7.12508H13.4583Z" fill="#329945"/>
<path fill-rule="evenodd" clip-rule="evenodd" d="M9.5 15.8333C9.06277 15.8333 8.70833 16.1878 8.70833 16.625C8.70833 17.0622 9.06277 17.4167 9.5 17.4167C9.93723 17.4167 10.2917 17.0622 10.2917 16.625C10.2917 16.1878 9.93723 15.8333 9.5 15.8333ZM7.125 16.625C7.125 15.3133 8.18832 14.25 9.5 14.25C10.8117 14.25 11.875 15.3133 11.875 16.625C11.875 17.9367 10.8117 19 9.5 19C8.18832 19 7.125 17.9367 7.125 16.625Z" fill="#329945"/>
</svg>
