<svg width="14" height="14" viewBox="0 0 14 14" fill="none" xmlns="http://www.w3.org/2000/svg">
<path d="M13.8991 12.9264L11.6119 10.6393C12.5215 9.51628 13.069 8.08892 13.069 6.53453C13.069 2.93146 10.1378 0 6.53464 0C2.93151 0 0 2.93146 0 6.53453C0 10.1376 2.93151 13.0691 6.53464 13.0691C8.08906 13.0691 9.51645 12.5216 10.6395 11.612L12.9267 13.8992C13.0611 14.0336 13.2788 14.0336 13.4132 13.8992L13.8994 13.413C14.0336 13.2785 14.0336 13.0605 13.8991 12.9264ZM6.53464 11.6933C3.68986 11.6933 1.3758 9.37926 1.3758 6.53453C1.3758 3.6898 3.68986 1.37577 6.53464 1.37577C9.37942 1.37577 11.6935 3.6898 11.6935 6.53453C11.6935 9.37926 9.37942 11.6933 6.53464 11.6933Z" fill="#DA2128"/>
</svg>
